Das Leben der Bienen als Wildvolk und in der Imkerei,Britta Ney und Hannah Schmitt,Treffpunkt vor dem Clubhaus
My social start-up,Enactus Tübingen,006
Die Eurokrise und die Weiterentwicklung der Europäischen Währungsunion,Rethinking Economics Tübingen,009
Gemein oder Gemeinwohl - Planspiel,Gemeinwohlökonomie Regionalgruppe Tübingen,010
Sympathiewerbung für Fledermäuse ,Freundeskreis  der Schloßfledermäuse,011
Wir essen (uns) gesund!,Wissenshunger,029
Ethik und Nachhaltigkeit des Konsums tierischer Produkte,Act for Animals e.V.,033
Zero Waste Workshop,Oikos Tübingen,034
Transformativer Umweltschutz,Helmut Rau,027
Dragon Dreaming for you,Friederike Albitz und Stephanie Belck,035
Umdenken für einen positiven Fußabdruck,Cradle to Cradle,028

